…
“set” (..is said to have more meanings than any other English word!)

``` r
define("set")
```

    ## # A tibble: 25 x 10
    ##    word  meaning_number part_of_speech phonetic audio  origin definition example
    ##    <chr>          <int> <chr>          <chr>    <chr>  <chr>  <chr>      <chr>  
    ##  1 set                1 verb           sɛt      https… Old E… put, lay,… Delane…
    ##  2 set                1 verb           sɛt      https… Old E… put or br… the Ho…
    ##  3 set                1 verb           sɛt      https… Old E… adjust (a… set yo…
    ##  4 set                1 verb           sɛt      https… Old E… harden in… cook f…
    ##  5 set                1 verb           sɛt      https… Old E… (of the s… the su…
    ##  6 set                1 verb           sɛt      https… Old E… (of a tid… a fair…
    ##  7 set                1 verb           sɛt      https… Old E… start (a … the sc…
    ##  8 set                1 verb           sɛt      https… Old E… (of bloss… wait u…
    ##  9 set                1 verb           sɛt      https… Old E… sit.       the re…
    ## 10 set                2 noun           sɛt      https… late … a group o… a set …
    ## # … with 15 more rows, and 2 more variables: synonyms <I<list>>,
    ## #   antonyms <I<list>>
…
1.  <https://ssl.gstatic.com/dictionary/static/sounds/20200429/lead--_gb_1.mp3>
2.  <https://ssl.gstatic.com/dictionary/static/sounds/20200429/lead--_gb_2.mp3>

### Advanced usage

Iterate over many words

``` r
words <- c("hello", "bark", "set", "lead")

map_df(words, ~ define(.x))
```

    ## # A tibble: 53 x 10
    ##    word  meaning_number part_of_speech phonetic audio  origin definition example
    ##    <chr>          <int> <chr>          <chr>    <chr>  <chr>  <chr>      <chr>  
    ##  1 hello              1 exclamation    həˈləʊ   https… early… used as a… hello …
    ##  2 hello              1 noun           həˈləʊ   https… early… an uttera… she wa…
    ##  3 hello              1 verb           həˈləʊ   https… early… say or sh… I pres…
    ##  4 bark               1 noun           bɑːk     https… Old E… the sharp… <NA>   
    ##  5 bark               1 verb           bɑːk     https… Old E… (of a dog… a dog …
    ##  6 bark               1 verb           bɑːk     https… Old E… utter (a … he beg…
    ##  7 bark               2 noun           bɑːk     https… Middl… the tough… beaver…
    ##  8 bark               2 noun           bɑːk     https… Middl… thin shee… white …
    ##  9 bark               2 verb           bɑːk     https… Middl… strip the… they h…
    ## 10 bark               2 verb           bɑːk     https… Middl… tan or dy… <NA>   
    ## # … with 43 more rows, and 2 more variables: synonyms <I<list>>,
    ## #   antonyms <I<list>>
…
